{
    "count": 1302,
    "next": "https://pokeapi.co/api/v2/pokemon?offset=550&limit=50",
    "previous": "https://pokeapi.co/api/v2/pokemon?offset=450&limit=50",
    "results": [
      {
        "name": "oshawott",
        "url": "https://pokeapi.co/api/v2/pokemon/501/"
      },
      {
        "name": "dewott",
        "url": "https://pokeapi.co/api/v2/pokemon/502/"
      },
      {
        "name": "samurott",
        "url": "https://pokeapi.co/api/v2/pokemon/503/"
      },
      {
        "name": "patrat",
        "url": "https://pokeapi.co/api/v2/pokemon/504/"
      },
      {
        "name": "watchog",
        "url": "https://pokeapi.co/api/v2/pokemon/505/"
      },
      {
        "name": "lillipup",
        "url": "https://pokeapi.co/api/v2/pokemon/506/"
      },
      {
        "name": "herdier",
        "url": "https://pokeapi.co/api/v2/pokemon/507/"
      },
      {
        "name": "stoutland",
        "url": "https://pokeapi.co/api/v2/pokemon/508/"
      },
      {
        "name": "purrloin",
        "url": "https://pokeapi.co/api/v2/pokemon/509/"
      },
      {
        "name": "liepard",
        "url": "https://pokeapi.co/api/v2/pokemon/510/"
      },
      {
        "name": "pansage",
        "url": "https://pokeapi.co/api/v2/pokemon/511/"
      },
      {
        "name": "simisage",
        "url": "https://pokeapi.co/api/v2/pokemon/512/"
      },
      {
        "name": "pansear",
        "url": "https://pokeapi.co/api/v2/pokemon/513/"
      },
      {
        "name": "simisear",
        "url": "https://pokeapi.co/api/v2/pokemon/514/"
      },
      {
        "name": "panpour",
        "url": "https://pokeapi.co/api/v2/pokemon/515/"
      },
      {
        "name": "simipour",
        "url": "https://pokeapi.co/api/v2/pokemon/516/"
      },
      {
        "name": "munna",
        "url": "https://pokeapi.co/api/v2/pokemon/517/"
      },
      {
        "name": "musharna",
        "url": "https://pokeapi.co/api/v2/pokemon/518/"
      },
      {
        "name": "pidove",
        "url": "https://pokeapi.co/api/v2/pokemon/519/"
      },
      {
        "name": "tranquill",
        "url": "https://pokeapi.co/api/v2/pokemon/520/"
      },
      {
        "name": "unfezant",
        "url": "https://pokeapi.co/api/v2/pokemon/521/"
      },
      {
        "name": "blitzle",
        "url": "https://pokeapi.co/api/v2/pokemon/522/"
      },
      {
        "name": "zebstrika",
        "url": "https://pokeapi.co/api/v2/pokemon/523/"
      },
      {
        "name": "roggenrola",
        "url": "https://pokeapi.co/api/v2/pokemon/524/"
      },
      {
        "name": "boldore",
        "url": "https://pokeapi.co/api/v2/pokemon/525/"
      },
      {
        "name": "gigalith",
        "url": "https://pokeapi.co/api/v2/pokemon/526/"
      },
      {
        "name": "woobat",
        "url": "https://pokeapi.co/api/v2/pokemon/527/"
      },
      {
        "name": "swoobat",
        "url": "https://pokeapi.co/api/v2/pokemon/528/"
      },
      {
        "name": "drilbur",
        "url": "https://pokeapi.co/api/v2/pokemon/529/"
      },
      {
        "name": "excadrill",
        "url": "https://pokeapi.co/api/v2/pokemon/530/"
      },
      {
        "name": "audino",
        "url": "https://pokeapi.co/api/v2/pokemon/531/"
      },
      {
        "name": "timburr",
        "url": "https://pokeapi.co/api/v2/pokemon/532/"
      },
      {
        "name": "gurdurr",
        "url": "https://pokeapi.co/api/v2/pokemon/533/"
      },
      {
        "name": "conkeldurr",
        "url": "https://pokeapi.co/api/v2/pokemon/534/"
      },
      {
        "name": "tympole",
        "url": "https://pokeapi.co/api/v2/pokemon/535/"
      },
      {
        "name": "palpitoad",
        "url": "https://pokeapi.co/api/v2/pokemon/536/"
      },
      {
        "name": "seismitoad",
        "url": "https://pokeapi.co/api/v2/pokemon/537/"
      },
      {
        "name": "throh",
        "url": "https://pokeapi.co/api/v2/pokemon/538/"
      },
      {
        "name": "sawk",
        "url": "https://pokeapi.co/api/v2/pokemon/539/"
      },
      {
        "name": "sewaddle",
        "url": "https://pokeapi.co/api/v2/pokemon/540/"
      },
      {
        "name": "swadloon",
        "url": "https://pokeapi.co/api/v2/pokemon/541/"
      },
      {
        "name": "leavanny",
        "url": "https://pokeapi.co/api/v2/pokemon/542/"
      },
      {
        "name": "venipede",
        "url": "https://pokeapi.co/api/v2/pokemon/543/"
      },
      {
        "name": "whirlipede",
        "url": "https://pokeapi.co/api/v2/pokemon/544/"
      },
      {
        "name": "scolipede",
        "url": "https://pokeapi.co/api/v2/pokemon/545/"
      },
      {
        "name": "cottonee",
        "url": "https://pokeapi.co/api/v2/pokemon/546/"
      },
      {
        "name": "whimsicott",
        "url": "https://pokeapi.co/api/v2/pokemon/547/"
      },
      {
        "name": "petilil",
        "url": "https://pokeapi.co/api/v2/pokemon/548/"
      },
      {
        "name": "lilligant",
        "url": "https://pokeapi.co/api/v2/pokemon/549/"
      },
      {
        "name": "basculin-red-striped",
        "url": "https://pokeapi.co/api/v2/pokemon/550/"
      }
    ]
  }